C:\Users\josep\Music\transportecastro\src\main\java\una\ac\cr\sistema_transporte\controller\PedidosInventarioController.java
C:\Users\josep\Music\transportecastro\src\main\java\una\ac\cr\sistema_transporte\data\DataLlanta.java
C:\Users\josep\Music\transportecastro\src\main\java\una\ac\cr\sistema_transporte\repository\camionRepository.java
C:\Users\josep\Music\transportecastro\src\main\java\una\ac\cr\sistema_transporte\data\DataBase.java
C:\Users\josep\Music\transportecastro\src\main\java\una\ac\cr\sistema_transporte\security\Encriptacion.java
C:\Users\josep\Music\transportecastro\src\main\java\una\ac\cr\sistema_transporte\jpa\proveedorJPA.java
C:\Users\josep\Music\transportecastro\src\main\java\una\ac\cr\sistema_transporte\controller\filtroMesesLlanta.java
C:\Users\josep\Music\transportecastro\src\main\java\una\ac\cr\sistema_transporte\Logica\LogicaLlanta.java
C:\Users\josep\Music\transportecastro\src\main\java\una\ac\cr\sistema_transporte\data\DataCamion.java
C:\Users\josep\Music\transportecastro\src\main\java\una\ac\cr\sistema_transporte\domain\GastoLlanta.java
C:\Users\josep\Music\transportecastro\src\main\java\una\ac\cr\sistema_transporte\controller\movimientoInventarioController.java
C:\Users\josep\Music\transportecastro\src\main\java\una\ac\cr\sistema_transporte\domain\Proveedor.java
C:\Users\josep\Music\transportecastro\src\main\java\una\ac\cr\sistema_transporte\controller\GastoCombController.java
C:\Users\josep\Music\transportecastro\src\main\java\una\ac\cr\sistema_transporte\controller\ImagenController.java
C:\Users\josep\Music\transportecastro\src\main\java\una\ac\cr\sistema_transporte\Test\PruebaSeleniumRegistroAceite.java
C:\Users\josep\Music\transportecastro\src\main\java\una\ac\cr\sistema_transporte\controller\GastoAceitesController.java
C:\Users\josep\Music\transportecastro\src\main\java\una\ac\cr\sistema_transporte\domain\DataCamionDashboard.java
C:\Users\josep\Music\transportecastro\src\main\java\una\ac\cr\sistema_transporte\repository\proveedorRepository.java
C:\Users\josep\Music\transportecastro\src\main\java\una\ac\cr\sistema_transporte\controller\proveedorController.java
C:\Users\josep\Music\transportecastro\src\main\java\una\ac\cr\sistema_transporte\domain\GastosAceite.java
C:\Users\josep\Music\transportecastro\src\main\java\una\ac\cr\sistema_transporte\Logica\LogicaGastoComb.java
C:\Users\josep\Music\transportecastro\src\main\java\una\ac\cr\sistema_transporte\Logica\LogicaPedidoInventario.java
C:\Users\josep\Music\transportecastro\src\main\java\una\ac\cr\sistema_transporte\Logica\LogicaProveedor.java
C:\Users\josep\Music\transportecastro\src\main\java\una\ac\cr\sistema_transporte\controller\inventarioController.java
C:\Users\josep\Music\transportecastro\src\main\java\una\ac\cr\sistema_transporte\domain\PedidosInventarios.java
C:\Users\josep\Music\transportecastro\src\main\java\una\ac\cr\sistema_transporte\data\DataLogin.java
C:\Users\josep\Music\transportecastro\src\main\java\una\ac\cr\sistema_transporte\controller\GastoAceiteController.java
C:\Users\josep\Music\transportecastro\src\main\java\una\ac\cr\sistema_transporte\service\proveedorService.java
C:\Users\josep\Music\transportecastro\src\main\java\una\ac\cr\sistema_transporte\jpa\camionJpa.java
C:\Users\josep\Music\transportecastro\src\main\java\una\ac\cr\sistema_transporte\Test\PruebaSeleniumCompararCamiones_1.java
C:\Users\josep\Music\transportecastro\src\main\java\una\ac\cr\sistema_transporte\data\DataPedidoInventario.java
C:\Users\josep\Music\transportecastro\src\main\java\una\ac\cr\sistema_transporte\domain\DatosMantAceite.java
C:\Users\josep\Music\transportecastro\src\main\java\una\ac\cr\sistema_transporte\domain\DatosConsumoLLantas.java
C:\Users\josep\Music\transportecastro\src\main\java\una\ac\cr\sistema_transporte\controller\RecuperacionController.java
C:\Users\josep\Music\transportecastro\src\main\java\una\ac\cr\sistema_transporte\Logica\LogicaAceite.java
C:\Users\josep\Music\transportecastro\src\main\java\una\ac\cr\sistema_transporte\config\AppConfig.java
C:\Users\josep\Music\transportecastro\src\main\java\una\ac\cr\sistema_transporte\Logica\LogicaGastoLlanta.java
C:\Users\josep\Music\transportecastro\src\main\java\una\ac\cr\sistema_transporte\Test\PruebaSeleniumRealizarPedido.java
C:\Users\josep\Music\transportecastro\src\main\java\una\ac\cr\sistema_transporte\data\DataInventario.java
C:\Users\josep\Music\transportecastro\src\main\java\una\ac\cr\sistema_transporte\data\DataGastoAceite.java
C:\Users\josep\Music\transportecastro\src\main\java\una\ac\cr\sistema_transporte\SistemaTransporteApplication.java
C:\Users\josep\Music\transportecastro\src\main\java\una\ac\cr\sistema_transporte\domain\Camion.java
C:\Users\josep\Music\transportecastro\src\main\java\una\ac\cr\sistema_transporte\domain\GastoAceite.java
C:\Users\josep\Music\transportecastro\src\main\java\una\ac\cr\sistema_transporte\controller\FiltroController.java
C:\Users\josep\Music\transportecastro\src\main\java\una\ac\cr\sistema_transporte\data\DataGastoCom.java
C:\Users\josep\Music\transportecastro\src\main\java\una\ac\cr\sistema_transporte\Logica\LogicaGastoAceite.java
C:\Users\josep\Music\transportecastro\src\main\java\una\ac\cr\sistema_transporte\Logica\LogicaMovimientos.java
C:\Users\josep\Music\transportecastro\src\main\java\una\ac\cr\sistema_transporte\controller\LoginController.java
C:\Users\josep\Music\transportecastro\src\main\java\una\ac\cr\sistema_transporte\Logica\LogicaLoginRep.java
C:\Users\josep\Music\transportecastro\src\main\java\una\ac\cr\sistema_transporte\Logica\LogicaInventario.java
C:\Users\josep\Music\transportecastro\src\main\java\una\ac\cr\sistema_transporte\data\DataProveedor.java
C:\Users\josep\Music\transportecastro\src\main\java\una\ac\cr\sistema_transporte\Logica\LogicaCalculos.java
C:\Users\josep\Music\transportecastro\src\main\java\una\ac\cr\sistema_transporte\controller\AceiteController.java
C:\Users\josep\Music\transportecastro\src\main\java\una\ac\cr\sistema_transporte\domain\Aceite.java
C:\Users\josep\Music\transportecastro\src\main\java\una\ac\cr\sistema_transporte\Test\PruebaSeleniumProveedor.java
C:\Users\josep\Music\transportecastro\src\main\java\una\ac\cr\sistema_transporte\controller\GastoLlantaController.java
C:\Users\josep\Music\transportecastro\src\main\java\una\ac\cr\sistema_transporte\service\inventarioService.java
C:\Users\josep\Music\transportecastro\src\main\java\una\ac\cr\sistema_transporte\Logica\LogicaLogin.java
C:\Users\josep\Music\transportecastro\src\main\java\una\ac\cr\sistema_transporte\Test\PruebaSeleniumLogin.java
C:\Users\josep\Music\transportecastro\src\main\java\una\ac\cr\sistema_transporte\Test\PruebaSeleniumCompararCamiones.java
C:\Users\josep\Music\transportecastro\src\main\java\una\ac\cr\sistema_transporte\controller\RellenoAceiteController.java
C:\Users\josep\Music\transportecastro\src\main\java\una\ac\cr\sistema_transporte\data\DataMovimiento.java
C:\Users\josep\Music\transportecastro\src\main\java\una\ac\cr\sistema_transporte\domain\Usuario.java
C:\Users\josep\Music\transportecastro\src\main\java\una\ac\cr\sistema_transporte\service\ServiceEmail.java
C:\Users\josep\Music\transportecastro\src\main\java\una\ac\cr\sistema_transporte\jpa\inventarioJpa.java
C:\Users\josep\Music\transportecastro\src\main\java\una\ac\cr\sistema_transporte\repository\inventarioRepository.java
C:\Users\josep\Music\transportecastro\src\main\java\una\ac\cr\sistema_transporte\domain\DatosConsumoComb.java
C:\Users\josep\Music\transportecastro\src\main\java\una\ac\cr\sistema_transporte\domain\Llanta.java
C:\Users\josep\Music\transportecastro\src\main\java\una\ac\cr\sistema_transporte\controller\camionController.java
C:\Users\josep\Music\transportecastro\src\main\java\una\ac\cr\sistema_transporte\data\DataGastoLlanta.java
C:\Users\josep\Music\transportecastro\src\main\java\una\ac\cr\sistema_transporte\domain\EmailMessage.java
C:\Users\josep\Music\transportecastro\src\main\java\una\ac\cr\sistema_transporte\controller\LlantaController.java
C:\Users\josep\Music\transportecastro\src\main\java\una\ac\cr\sistema_transporte\data\DataGastosAceite.java
C:\Users\josep\Music\transportecastro\src\main\java\una\ac\cr\sistema_transporte\data\DataAceite.java
C:\Users\josep\Music\transportecastro\src\main\java\una\ac\cr\sistema_transporte\domain\Inventario.java
C:\Users\josep\Music\transportecastro\src\main\java\una\ac\cr\sistema_transporte\domain\MovimientoInventario.java
C:\Users\josep\Music\transportecastro\src\main\java\una\ac\cr\sistema_transporte\service\camionService.java
C:\Users\josep\Music\transportecastro\src\main\java\una\ac\cr\sistema_transporte\domain\RellenoAceite.java
C:\Users\josep\Music\transportecastro\src\main\java\una\ac\cr\sistema_transporte\domain\GastoCombustible.java
