C:\Users\josep\Music\transportecastro\src\test\java\una\ac\cr\sistema_transporte\SistemaTransporteApplicationTests.java
C:\Users\josep\Music\transportecastro\src\test\java\una\ac\cr\sistema_transporte\PruebaSeleniumRealizarPedido.java
C:\Users\josep\Music\transportecastro\src\test\java\una\ac\cr\sistema_transporte\PruebaSeleniumRegistroAceite.java
C:\Users\josep\Music\transportecastro\src\test\java\una\ac\cr\sistema_transporte\PruebaSeleniumCompararCamiones.java
C:\Users\josep\Music\transportecastro\src\test\java\una\ac\cr\sistema_transporte\PruebaSeleniumLogin.java
C:\Users\josep\Music\transportecastro\src\test\java\una\ac\cr\sistema_transporte\PruebaSeleniumProveedor.java
